{
    "name": "Huy Hùng",
    "productList": [
        {
            "imgProductUrl": "assets/img/detail-product/detail_product_17.png",
            "linkProduct": "https://dienmaycholon.vn/",
            "labelSelling": false,
            "labelBuy": false,
            "nameProduct": [
                {
                    "imgBrand": "assets/img/hompage_12.png ",
                    "productCode": "UA45NU7300 (2020)",
                    "poductHightLight": "Smart TV / Voice Seach / 43”"
                }
            ],
            "price": "5.250.000",
            "promotionPrice": null,
            "percentDiscount": null,
            "gift": "Giảm 500.000đ và Quà 150.000đ",
            "giftDetail": null
        },
        {
            "imgProductUrl": "assets/img/detail-product/detail_product_14.png",
            "linkProduct": "https://dienmaycholon.vn/",
            "labelSelling": false,
            "labelBuy": true,
            "nameProduct": [
                {
                    "imgBrand": "assets/img/hompage_12.png ",
                    "productCode": "WSA50HK7300 (2019)",
                    "poductControll": "Smart TV / Voice Seach / 55”"
                }
            ],
            "price": "22.350.000",
            "discount": [
                {
                    "promotionPrice": "24.500.000",
                    "percentDiscount": "15"
                }
            ],
            "gift": "Giảm 500.000đ và Quà 150.000đ",
            "giftDetail": null
        },
        {
            "imgProductUrl": "assets/img/detail-product/detail_product_15.png",
            "linkProduct": "https://dienmaycholon.vn/",
            "labelSelling": true,
            "labelBuy": false,
            "nameProduct": [
                {
                    "imgBrand": "assets/img/hompage_12.png ",
                    "productCode": "MS49MA7300 (2019)",
                    "poductControll": "Smart TV / Voice Seach / 50”"
                }
            ],
            "price": "9.350.000",
            "discount": [
                {
                    "promotionPrice": "24.500.000",
                    "percentDiscount": "15"
                }
            ],
            "gift": null,
            "giftDetail": "Tặng máy pha cà phê"
        },
        {
            "imgProductUrl": "assets/img/detail-product/detail_product_17.png",
            "linkProduct": "https://dienmaycholon.vn/",
            "labelSelling": true,
            "labelBuy": true,
            "nameProduct": [
                {
                    "imgBrand": "assets/img/hompage_12.png ",
                    "productCode": "SN50NY7580 (2019)",
                    "poductControll": "Smart TV / Voice Seach / 43”"
                }
            ],
            "price": "7.350.000",
            "promotionPrice": null,
            "percentDiscount": null,
            "gift": "Giảm 1.000.000đ",
            "giftDetail": null
        },
        {
            "imgProductUrl": "assets/img/detail-product/detail_product_16.png",
            "linkProduct": "https://dienmaycholon.vn/",
            "labelSelling": false,
            "labelBuy": false,
            "nameProduct": [
                {
                    "imgBrand": "assets/img/hompage_12.png ",
                    "productCode": "SS55AU7650 (2019)",
                    "poductControll": "Smart TV / Voice Seach / 50”"
                }
            ],
            "price": "8.750.000",
            "promotionPrice": null,
            "percentDiscount": null,
            "gift": null,
            "giftDetail": null
        },
        {
            "imgProductUrl": "assets/img/detail-product/detail_product_15.png",
            "linkProduct": "https://dienmaycholon.vn/",
            "labelSelling": false,
            "labelBuy": true,
            "nameProduct": [
                {
                    "imgBrand": "assets/img/hompage_12.png ",
                    "productCode": "UA55NU7300 (2019)",
                    "poductControll": "Smart TV / Voice Seach / 49”"
                }
            ],
            "price": "12.350.000",
            "discount": [
                {
                    "promotionPrice": "24.500.000",
                    "percentDiscount": "15"
                }
            ],
            "gift": null,
            "giftDetail": null
        }
    ]
}